<svg width="704.09449" height="707.3622" xmlns="http://www.w3.org/2000/svg">
 <defs>
  <mask id="mask4166" maskUnits="userSpaceOnUse">
   <rect fill="#ffffff" stroke="#ffffff" stroke-width="47.82241" stroke-linecap="round" stroke-linejoin="round" stroke-miterlimit="4" transform="matrix(0.96013826,0.27952552,-0.26808089,0.96339641,0,0) " y="657.1405" x="230.25133" height="72.94374" width="166.7529" id="rect4168"/>
  </mask>
 </defs>
 <metadata id="metadata7">image/svg+xml</metadata>
 <g>
  <title>background</title>
  <rect fill="none" id="canvas_background" height="709.3622" width="706.09449" y="-1" x="-1"/>
 </g>
 <g>
  <title>Layer 1</title>
  <text font-size="40px" font-style="normal" font-weight="normal" fill="#000000" font-family="Andalus" id="text3541" y="529.55506" x="253.44502" xml:space="preserve"/>
  <circle fill="#afc6e9" stroke="#14283c" stroke-width="8" stroke-miterlimit="4" id="path3318" cx="352.36817" cy="352.86396" r="345.45114"/>
  <path fill="#14283c" fill-rule="evenodd" id="path3045" d="m335.50539,67.50389c-2.83028,0.0276 -0.59375,6.61551 -0.59375,11.28125c-3.24694,5.20607 -8.75433,8.76812 -11.5625,13.40625c-5.26531,8.70832 0.60608,13.48597 3.53125,18.21875c2.57415,-0.72569 14.79885,-8.78531 17.34375,1.4375c-2.34014,-1.19897 -5.15675,-2.16289 -9.28125,-1.46875c-4.12449,0.7257 -3.5634,1.40943 -5.40625,4.34375c3.91973,-0.9781 4.07843,-1.4375 9.34375,-1.4375c1.66734,3.3445 2.30723,3.73445 2.6875,8.625c-5.11905,-2.61881 -5.85914,-0.15776 -12.03125,0c1.19932,1.10431 -1.45426,1.1475 2.875,2.0625c2.22312,0.44173 -0.1305,-0.24909 3.90625,-0.34375c6.49389,-0.18931 1.55863,1.20138 7.90625,-0.25l0,2.84375c-4.97279,1.92466 -0.0988,0.0419 -3.375,2.1875c-10.20885,6.689 -0.98847,-2.90564 -9.96875,3.5625l-4,-4.28125c0.46803,6.18417 -0.18118,2.58123 2.65625,7.15625c6.72789,-3.81778 2.43851,-1.59557 10.6875,-1.40625c3.01292,13.88283 12,39.91804 12,51.75c-4.85579,-3.50226 -6.14005,-6.38587 -9.5625,-11.78125l-7.75,7.46875l0,-40.25l-5.375,51.78125c-6.05511,-4.38571 -2.37984,-6.63693 -9.3125,-8.65625l9.3125,-48.90625c-2.72041,4.25951 -2.50889,7.46996 -4.46875,13.875l-8.3125,28.4375c-0.70205,2.68191 -0.96947,5.61111 -1.4375,7.0625c-1.78436,5.774 1.88087,3.11806 -4.4375,3.84375c0,7.22539 1.34375,8.88845 1.34375,17.28125l2.65625,0c1.08231,-4.9852 4.55212,-11.48989 6.6875,-15.8125c3.30544,2.39794 4.46237,5.09149 6.65625,8.59375c-6.31837,0.56793 -8.317,4.62274 -12.5,8.125c-5.23606,4.38571 -7.136,3.40625 -15.53125,3.40625c1.78436,2.87122 2.45165,3.96921 4.03125,7.1875c-3.15919,1.79846 -5.45327,3.33439 -9.34375,4.3125l0,2.875c6.46463,1.86156 1.56662,2.48218 8.03125,4.34375c-1.02381,13.15714 -2.71875,24.61385 -2.71875,38.84375l1.375,0c0,-13.3149 3.07993,-25.66623 4.25,-37.6875l-6.9375,-8.375c4.1245,-1.04121 3.87551,-1.80254 8,-2.84375c-1.05306,-4.25951 -0.52088,-2.34209 -2.65625,-5.78125c18.75035,0 15.49391,-10.43462 25.46875,-7.46875c25.01022,7.44625 22.19634,-1.92738 29.1875,0.28125c3.89048,2.80812 1.80247,2.92422 6.6875,4.3125c-2.36938,4.82744 -0.14077,2.68946 -4.03125,5.75c-1.66735,6.81521 -17.52992,18.19385 -23,24.0625c-4.56326,4.95365 -5.76887,8.61716 -7.875,15.96875c-2.25238,7.85643 -0.16334,12.48703 1.5625,20.375c-14.12858,0 -15.30914,2.12984 -25.78125,8.15625c-3.68572,2.14554 -3.82211,1.5945 -6.25,4.78125c5.32382,-1.32518 18.57828,-8.40806 22.46875,-8.21875c25.53675,1.23053 11.99336,3.65354 22.875,3.9375c-2.04762,-3.31293 -2.53924,-2.91381 -2.65625,-8.65625c1.55034,-0.7888 -0.0496,-0.37439 1.96875,-0.4375c0.0292,0 3.17223,0.40595 3.40625,0.4375l0,-5.75c2.80816,1.45139 1.17602,1.05918 5.125,1.40625l1.5,-5.71875c5.03129,1.26208 5.4551,0.58938 8,4.3125c-5.32382,1.5145 -10.35807,5.36097 -13.3125,10.09375c4.2415,-1.23052 2.05029,-1.01555 5.53125,-2.65625c1.90136,-0.88345 2.97563,-1.30647 4.90625,-1.9375c9.33129,-2.99743 25.8108,-4.13193 33.5625,3.125c-15.06463,0 -24.2079,-3.92254 -38.6875,4.3125l2.6875,35.96875l1.3125,-35.96875c3.91973,-0.9781 4.07844,-1.4375 9.34375,-1.4375c1.31633,6.08952 2.36573,3.76979 2.6875,11.5c0.0878,2.83969 -0.3503,3.94218 0.46875,6.71875c1.17006,3.97553 1.48545,2.5231 2.1875,3.375l0,-21.59375c6.66939,0 8.18979,1.4375 16,1.4375c3.53945,7.25694 4.23584,27.89144 2.65625,35.96875c-13.30953,0 -16.57372,0.43887 -21.3125,10.09375c-4.73878,-3.43914 -6.99519,-10.57171 -16.53125,-6.34375c-5.11905,2.27174 -8.66824,7.64903 -8.84375,14.9375c6.66939,-8.23504 2.07435,-12.9375 17.34375,-12.9375l4.1875,7c0.14625,0.25242 0.41624,0.6229 0.5625,0.84375l1.9375,3.6875c-5.70408,0 -21.8628,0.60734 -25.34375,5.71875c6.87415,-1.73536 14.146,-2.84375 22.6875,-2.84375c1.98912,3.91244 1.34375,8.77264 1.34375,12.9375l1.375,30.15625c0.17552,5.01677 -0.0625,10.76359 -0.0625,15.875l2.59375,-41.78125c0.117,-7.06762 1.25999,-6.50151 1.40625,-12.875c5.55782,1.38827 10.07517,2.76404 15.75,4.5625c12.47607,3.95639 10.65059,17.85059 9.84375,40.53125c-13.76961,5.05343 -19.08532,7.55663 -30.0625,11.28125c-1.32993,0.45125 -2.71966,0.94134 -4.25,1.4375c1.51347,-0.49585 2.91058,-0.98303 4.25,-1.4375c-7.31079,0.66503 -16.13847,1.96696 -23.1875,4.40625c-3.30544,1.16742 -1.72908,1.39871 -4.625,2.1875c-7.31293,1.98778 -28.87202,0.3125 -37.0625,0.3125c0.96531,-4.41726 2.05412,-5.5305 4.21875,-8.875l6.4375,5.96875c-2.19388,-10.0966 -3.7952,-7.30467 -9.03125,-8.125c-5.35307,-0.85191 -0.3306,-1.71603 -7,-2c-3.97823,-0.15784 -4.78214,0.8747 -6.625,0.90625c-3.3932,0 -10.68562,-1.54091 -17.0625,-0.53125c-0.43877,0.0632 -6.22492,1.30796 -7.6875,1.78125c-3.48096,1.10431 -2.22253,1.335 -5.9375,2.25c0,-10.38057 0.28504,-6.97418 4,-12.9375c-6.43537,1.45139 -1.86462,1.13588 -4,0c2.92517,-6.53122 -0.5687,-10.29364 3,-15.53125c3.12994,-4.57502 4.44622,-5.61442 5.03125,-13.25c-5.52857,-1.38827 -8.45689,-5.21361 -14.6875,-5.75l0,-8.65625c9.3898,-2.71347 1.91084,-4.28063 -3.96875,-4.34375c-7.13742,-0.0632 -7.4349,-1.18507 -13.34375,-1.4375c-1.42968,-0.0631 -2.8097,-0.0994 -4.15625,-0.0937c-9.42587,0.0396 -16.99703,1.5625 -25.1875,1.5625c2.34013,3.78623 0.66147,2.98732 5.3125,4.3125l0,10.09375c-3.24694,0.0947 -11.69439,1.74246 -13.625,2.53125c-4.50477,1.86157 -4.41513,4.96165 -6.375,8.96875c9.79933,-1.16742 -1.07496,-4.32082 11.09375,-6.71875c16.14695,-3.1552 31.59489,-0.46875 46.25,-0.46875c0.58504,7.69867 1.60118,2.1878 2.625,8.6875c0.78979,5.14295 1.64757,12.86111 -3.96875,14.3125c0,3.62847 -0.35503,9.81205 -0.0625,13.125c0.8483,9.0554 -0.55745,-1.88404 2.71875,5.59375c4.17961,9.49856 2.40532,26.79393 6.4375,40.1875l-15.5625,5.46875l-0.0312,0l-5.5,0.34375c-5.64649,0.31452 -12.33513,1.61173 -15.21875,6.875c-10.83382,3.59952 -21.44715,7.42461 -31.96875,11.34375c0.32565,-3.65682 0.53125,-6.94274 0.53125,-9.59375c6.72789,-3.47072 16.13694,-3.03685 21.34375,-5.71875c-2.57416,-4.13332 -6.79702,-7.25438 -10.6875,-10.0625c1.63809,-3.37605 2.27598,-3.76571 2.65625,-8.65625l12,0c16.52723,0 12.58137,-5.36127 14.6875,-10.0625c-9.82858,0 -32.27754,1.77417 -40,5.78125c0,8.73988 1.98946,0.59752 2.75,10c0.20476,2.65035 -0.0937,7.22222 -0.0937,10.125c-5.41157,1.35672 -5.42402,1.47281 -9.34375,4.3125l0.34375,16.03125c-18.60115,6.99381 -37.0179,14.18353 -56,20.71875c-6.27329,2.15237 -4.0579,2.22651 -9.46875,4.28125c-3.57006,1.36774 -8.19629,2.31234 -11.78125,3.65625c-4.84596,1.85039 -4.02138,2.57767 -9.59375,4.3125l0.65625,1.0625l151.15625,-47.03125c0.006,-0.0106 -0.006,-0.0206 0,-0.0312l120.53125,-37.5c90.18834,-28.07826 178.2192,-54.17357 269.40615,-82.5626l-141.78125,31.59375c0.43947,0.30564 0.48081,0.63452 0.21875,0.96875c-1.24722,-4.55819 -3.82503,-7.43053 -9.65625,-7.5625c0,-5.07984 -1.226,-21.04923 -0.875,-22.4375c0.73131,-2.93432 2.49146,-4.71799 3.28125,-8.0625c0.58504,-2.52416 1.02271,-7.57502 1.8125,-9.53125c1.6381,-4.07017 6.96052,-4.92151 10.5,-13.125c2.69117,-6.24728 3.06814,-10.42937 0.40625,-17.8125c-2.69117,-7.54091 -9.42093,-15.14433 -15.125,-19.65625c-2.51565,-2.01932 -3.18383,-2.97917 -5.875,-5.15625c-9.2143,-7.4778 -14.89963,-22.82261 -20.75,-25.03125c3.77348,6.12107 2.9869,1.37788 4.625,10.875c1.34559,7.69866 -1.0492,16.16471 -6.34375,21.8125c-2.39865,2.52415 -4.38931,3.12455 -7.34375,6.4375c-18.10681,20.41407 -5.54866,30.07534 -0.3125,38.53125c15.09388,0 24.4009,-1.55677 34.84375,4.375l-1.5,5.71875c-5.35307,-3.88087 -14.11657,-2.90625 -21.3125,-2.90625l0,1.4375c5.32382,0 6.9627,0.77369 11.90625,1.5625c7.13744,1.10431 6.60373,0.18421 6.75,7.0625c-7.86871,-1.95621 -4.73808,-4.28125 -16,-4.28125c2.39865,4.89053 4.18572,9.00606 0.5,14.90625c-2.07686,3.31296 -6.77231,5.88512 -9.84375,8.09375l0,8.625c4.7973,1.86157 3.70565,2.39539 5.34375,10.0625c8.74627,-0.78879 5.84964,-7.53833 16,-10.0625c3.86983,2.76317 5.8217,4.44725 6.5,10.21875l-9.15625,0.8125c-2.28693,-0.11503 -4.67793,-0.19557 -7,-0.15625c-4.7854,0.081 -9.17678,0.66407 -11.25,2.5l-1.03125,1.40625c-0.17898,0.0551 -0.27264,0.0952 -0.46875,0.15625l-0.28125,0.0937c0.048,-11.78614 1.09079,-19.57723 -2.65625,-28c11.43743,-1.00966 16.19225,-14.12139 0.25,-27.5625c-8.51223,-7.19383 -10.14206,-12.84902 -13.59375,-15.5625c2.1061,9.718 8.15147,13.39691 12.65625,20.90625c3.56869,5.96331 2.41901,7.85099 -1.96875,13.625c-8.16123,0 -15.34115,0.0837 -21.25,4.40625l-1.40625,1.3125c6.37688,-0.56793 10.23177,-1.40625 18.65625,-1.40625l0,1.40625c-6.61089,0 -12.54264,2.875 -18.65625,2.875l0,1.46875c15.18166,0 5.97894,-3.10567 23.96875,1.40625c1.7551,8.10885 1.34375,14.56145 1.34375,24.46875c-7.28368,-3.75469 -18.14582,-0.15785 -25.3125,0l-0.28125,0.25c-0.005,0.00021 -0.0277,-0.001 -0.0312,0c-4.7545,2.41427 -8.61245,4.50716 -11.8125,6.3125c0.0684,-1.00618 0.125,-2.1526 0.125,-3.65625c6.17213,-1.79847 7.84992,-6.21664 9.3125,-12.96875l-0.90625,-1.90625c-1.66735,-4.19641 -1.79536,-7.70063 -8.40625,-9.59375c2.36938,-4.85898 0.0782,-2.68917 3.96875,-5.78125c4.53403,3.56535 5.34375,9.17241 5.34375,17.28125c1.7551,3.02899 0.93494,3.89704 1.8125,8.125c0.0585,0.2524 0.34576,1.18933 0.375,1c0.0585,-0.15784 0.32451,0.65353 0.5,0.9375c0,-12.77853 1.26275,-14.6925 -3.125,-23.96875l-4.9688,-9.0937c-5.96734,-12.6523 13.42059,-21.76905 16.375,-32.84375c1.19931,-4.54349 -0.16619,-4.03337 -0.3125,-10.34375l4,-1.40625c-0.70203,-6.81519 -0.78412,-1.60282 -2.65625,-7.1875c0.20469,-0.25242 0.50602,-0.65474 0.59375,-0.8125c12.08098,-18.01614 8.40545,-8.42619 18,-19.40625c7.02043,-8.04574 8.09375,-10.52372 8.09375,-24.375l-1.34375,0c0,13.47266 -11.66326,24.91456 -20,27.3125c3.77347,-6.05796 16,-10.4499 16,-28.75l-1.34375,0c0,7.4147 -1.3212,10.59557 -6.9375,16.9375c-3.86124,4.35416 -7.30172,8.59421 -11.71875,11.8125c1.95986,-7.98262 5.67668,-3.18041 -1.34375,-7.1875c-0.58504,7.60401 -1.63808,2.55314 0,10.0625c-5.38231,3.88088 -10.57864,10.23248 -12.1875,18.59375c-0.96531,4.9852 -1.01439,7.07669 1.0625,12.125c1.93062,4.63812 3.38644,5.14524 4.46875,9.5625c-4.62178,1.16742 -6.21583,3.22615 -9.375,5.71875c-4.65103,3.69158 -3.90459,3.13467 -6.625,8.65625c-6.14286,-4.41728 -2.17142,-5.75 -12,-5.75c0,-3.02898 0.44148,-6.85568 0.5,-8.875c0.0877,-4.48036 -2.24295,-15.99577 1.0625,-22.96875l-4.25,-5.53125c4.50478,1.10433 3.38877,1.96317 7.25,-0.71875c33.90276,-23.44305 -7.20757,-53.22299 -18.9375,-65.84375c-18.10682,-19.46752 -5.46011,-16.44083 -16.3125,-22.625c-4.65102,3.37605 -5.3125,4.70246 -5.3125,12.9375c-5.23606,-4.07019 0.0409,2.22628 -2.5625,-11.625c-1.05306,-5.7109 -1.98691,-8.01118 -3.625,-13.375c-3.71497,-12.02127 -16.39865,-42.31869 -14,-51.46875c2.04761,-7.79331 -0.77143,-5.78548 -2,-11.875c-0.7898,-3.94399 1.71747,-6.79062 2.15625,-12.34375c-7.42994,-4.22796 -11.22631,-4.22796 -18.65625,0c1.37483,-5.61624 5.35586,-6.75997 11.9375,-5.71875c7.98572,1.26207 2.76428,4.51212 10.75,-0.0312c0,-18.42631 -5.24612,-11.42921 -11.59375,-22.09375c-4.68028,-7.85642 2.57453,-9.50981 -2.28125,-11.75c-0.63257,-0.28791 -1.12692,-0.44144 -1.53125,-0.4375l0,-0.00005zm26.03125,147.90625c-2.16463,-8.83454 -7.16781,-5.70079 -14.65625,-4.3125c-13.48505,2.4926 -7.0179,-0.25619 -17.34375,-2.875c2.34014,3.75468 5.80429,6.03775 9.34375,8.625c6.34762,-1.60914 15.98686,-4.87666 22.65625,-1.4375zm9.375,-63.28125c0,14.48232 1.78801,23.02491 -2.6875,30.21875c2.04762,3.18674 0.22651,1.77099 4,2.84375c-0.7313,3.37605 -1.22475,4.27054 -1.3125,8.65625l2.65625,0c0.49728,-6.75211 9.8304,-11.1567 -1.34375,-14.375c0,-9.74953 1.34375,-16.11127 1.34375,-27.34375l-2.65625,0zm-30.6875,34.53125c5.11904,1.45139 2.93656,1.16924 6.125,6.34375c2.83741,4.57502 3.33393,3.04605 4.5625,8.03125c-5.49932,0.47328 -2.99995,1.4375 -8.03125,1.4375c-4.85579,0 -3.14038,-1.31129 -9.3125,-1.4375c0.58504,-7.5409 4.75488,-6.67634 6.65625,-14.375zm120.09375,4.125c-0.17546,21.39218 1.28125,10.64373 1.28125,21.75l1.3125,0c0,-3.69157 -0.2108,-7.99684 -0.0937,-11.59375c0.2047,-5.61624 0.7609,-5.31295 2.75,-8.53125l-5.25,-1.625l-0.00005,0zm-100.09375,3.0625c0.96531,4.44882 1.69094,4.17618 2.65625,8.625c-3.68572,-2.65036 -8.38959,-4.11308 -2.65625,-8.625zm-122.6875,2.875c0,13.92935 -3.62539,16.3758 -1.34375,32.1875c6.7864,-7.29408 2.6875,-3.62292 2.6875,-32.1875l-1.34375,0zm226.46875,21.53125c-2.05264,0.007 -5.09375,0.62251 -5.09375,5.78125c0,3.06053 3.44238,2.875 5.34375,2.875c1.81359,-3.50226 1.3125,-2.63044 1.3125,-8.59375c-0.31446,0.008 -0.87829,-0.065 -1.5625,-0.0625zm-91.6875,7.90625l6.5625,3.625c-8.68776,2.20863 -3.66509,0 -10.65625,0c-3.71497,0 1.52347,0.23611 -2.25,1.6875c-0.14625,0.0631 -0.54523,0.18689 -0.75,0.25l-4.65625,-0.0625c-6.20136,1.32518 0.10816,4.56538 -7,1c2.25238,-3.31294 3.48669,-4.0856 8.78125,-4.9375l5.40625,0.9375l4.5625,-2.5zm10.65625,1.0625c0.83264,-0.0557 1.78303,0.0388 2.78125,0.0625c1.08923,3.77423 1.29633,1.06713 1.71875,0.0625c4.73879,0.53638 4.89444,0.54816 6.09375,5.3125c-9.65306,-6.94141 -6.93563,2.899 -13.3125,-2.875c0.3108,-1.95227 1.33101,-2.46976 2.71875,-2.5625zm-145.4375,5.4375c1.60884,2.61881 1.43894,1.81688 2.375,4.625c4.47551,13.47266 1.23541,2.41955 6.96875,14.09375c-5.90885,-1.7038 -8,-7.52793 -8,-14.40625l-1.34375,0c0,8.48746 1.92291,13.03549 7.65625,19.125l4.9375,4.71875c7.72245,8.17194 6.73911,11.53685 4.75,20.75c-0.17552,-0.28397 -0.41025,-1.09556 -0.46875,-0.90625c-0.0585,0.22087 -0.37899,-0.74788 -0.4375,-0.96875c-0.35102,-0.94655 -0.73674,-2.30345 -1,-3.25c-0.90681,-3.18674 -1.06794,-4.07111 -2.0625,-6.4375c-2.22313,-5.23761 -2.89605,-4.99412 -6.40625,-8.875c-6.34763,-7.06763 -8.3125,-12.93796 -8.3125,-22.6875l-1.3125,0c0,21.83391 -0.47917,13.38044 6.6875,25.875c3.65647,6.37348 8.1574,18.0776 1.3125,23.03125l-8.875,-23.53125c-5.11905,-16.24923 -0.46875,-20.42513 -0.46875,-28.25l-1.34375,0c0,3.97554 -0.16969,4.82081 -1.28125,7.21875c-0.0878,0.22087 -2.71947,4.58802 -3.1875,5.1875c-2.28163,3.15519 -1.73835,1.91758 -4.3125,4c-13.01702,10.50679 -24.70091,23.63301 -9.34375,39.125l2.125,3.4375c10.9694,-5.67934 22.90837,-1.46875 29.34375,-1.46875l0,1.46875c-8.92178,0 -9.0138,-3.70515 -29.34375,1.40625l-1.625,15.8125c3.91973,-2.83966 3.08393,-4.38345 4.3125,-10.03125c30.62655,-7.69865 22.81113,16.1706 33.3125,24.46875c0,-7.06764 0.87572,-11.0201 1.34375,-18.71875c0.43877,-7.13073 4.29817,-9.21815 1.34375,-15.8125c3.07143,-0.28397 2.64604,0.94821 6.15625,-3.4375c0.26327,-0.31552 0.95349,-1.24669 1.1875,-1.59375c10.73538,-16.31233 -9.81173,-33.76087 -14.375,-39.15625c-2.57415,-3.06053 -2.7449,-4.08636 -4.5,-8.125c-2.36939,-5.45848 -0.92747,-5.26766 -5.8125,-6.6875zm142.75,0.71875c0.21253,-0.0518 -1.31008,0.35167 2.15625,1.15625c6.40612,1.51449 1.3446,-1.92225 8.21875,-0.25l1.59375,0.46875c1.72586,0.28397 3.25923,-2.47871 7.96875,5.09375c-1.90135,1.04121 -1.1787,4.02068 -10.65625,-1.40625c-4.53402,3.24985 -2.90655,4.41727 -10.6875,0c-5.17755,2.93433 -5.86913,4.45123 -12.1875,-0.25l-5.1875,4.625l-5.03125,-2.75l-4.25,5.5625c-7.78096,-5.64779 0.63109,-0.915 -9.34375,0c4.00749,-8.14039 3.57444,-6.02491 8.78125,-6.6875c3.74422,-0.47328 1.98035,-1.61836 4.4375,-2.3125l10.8125,-1.0625c3.80273,0 -1.46935,-3.07367 4.46875,-1.90625c5.23606,1.00966 -0.97734,1.90625 4.84375,1.90625c2.66191,0 0.19384,-1.52672 3.03125,-2c0.70936,-0.11832 0.96041,-0.17024 1.03125,-0.1875zm10.59375,9.375c6.84492,10.06506 6.48957,-1.87499 13.65625,4.65625l-6.96875,6.84375c-1.93062,-3.12364 -2.52033,-4.97615 -5.5625,-7.46875l-6.21875,5.78125l-5.53125,-6.9375c-3.51021,2.52416 -3.7605,3.3205 -8.03125,5.75c-3.15919,-1.79846 -4.51705,-3.33409 -7.96875,-4.34375l-4.03125,5.78125c-4.94354,-1.41984 -1.71271,-1.45516 -6.65625,-2.875c-4.32925,3.12364 -2.97237,2.36037 -5.3125,7.15625c-3.18844,-2.27173 -1.42602,-1.70788 -5.375,-2.84375c-1.28708,5.20606 -0.10569,3.83922 -5.3125,4.3125c0.9068,-4.1964 2.3034,-6.6549 4,-10.0625c3.48096,0.88345 3.93783,1.2974 6.6875,2.875c0.58503,-2.71346 0.31794,-2.38753 1.3125,-4.34375c2.04762,0.53638 3.45621,1.15655 4.1875,1.125c5.9381,-0.12621 3.85986,-5.13209 10.5,-1.125c3.07143,-4.76434 1.36641,-2.8519 7.1875,-2c8.39524,1.19897 1.64494,-0.0195 6.96875,-1.25c6.43538,-1.51449 2.69868,6.00482 12.46875,-1.03125zm-161.34375,7.1875c-1.95987,7.91953 -11.33356,8.37851 6.65625,37.40625c-4.21225,1.04121 -9.10026,1.80223 -13.3125,2.875c-13.98832,1.3516 -9.38674,-14.40089 -9.34375,-20.15625l1.34375,0c0,8.32971 10.93945,24.12425 16,14.40625c-9.85783,-2.83966 -13.11961,-18.66245 -7.09375,-27.8125c2.01837,-3.09209 3.11734,-4.82563 5.75,-6.71875zm150.53125,2.78125c1.02015,0.0749 1.6534,1.59843 5.5,4.375c2.98368,-1.67225 3.99435,-2.38814 6.65625,-4.28125c12.22723,19.65683 4.13513,-1.15608 10.6875,8.625c-3.5102,0.88346 -3.92056,1.32654 -6.875,3.125l-5.15625,-4.5625c-8.71701,4.95365 -6.03265,2.88511 -12,-1.4375c-2.66191,1.92467 -3.67258,2.6087 -6.65625,4.3125l-5.53125,-4.5625l-5.15625,4.5625c-3.91973,-0.97811 -4.04719,-1.4375 -9.3125,-1.4375c-1.90136,7.76177 0.0649,0.39222 -7.21875,5.125c-4.59251,2.99743 -6.125,-1.19746 -6.125,6.375l-1.3125,0c0,-3.24985 -0.66934,-7.10809 0.96875,-8.875c2.13538,-2.30329 0.42219,0.17301 5.6875,1.6875c0.29252,-3.94398 0.11317,-3.13119 1.3125,-5.75c4.76803,1.07276 6.4224,0.78125 8.03125,-5.75c1.66735,0.97811 4.40387,2.84375 6.65625,2.84375c0.8483,0 3.85192,-3.20849 5.34375,-4.28125c2.98368,1.67225 3.99434,2.38814 6.65625,4.28125c5.41156,-3.07631 6.8236,-4.44994 7.84375,-4.375zm-91.84375,1.53125c0,10.47523 -1.60885,15.55345 0,23.03125c0.20476,-0.25242 0.508,-1.03366 0.625,-0.78125l3.375,-2.09375c-0.117,-5.07985 -0.81156,-16.18071 -4,-20.15625zm181.34375,0c3.68569,2.93433 4.77508,6.24276 3.3125,13.53125c-1.14083,5.8371 -2.63388,9.6789 -4.59375,13.84375c-3.7442,7.82486 -9.375,14.67437 -9.375,25.84375c-3.65648,0.31551 -2.91586,0.11226 -5.34375,1.4375c-6.20137,-28.74379 16,-32.06509 16,-54.65625zm12,14.375c1.5211,1.07276 5.12646,3.23309 6.0625,5c2.72041,4.9852 2.03156,14.3525 -0.25,19.96875c-3.77347,9.27625 -11.81024,12.40625 -20.46875,12.40625c3.65648,-5.86865 7.41331,-8.01978 10.71875,-15.75c2.86669,-6.7521 3.9375,-11.49684 3.9375,-21.625zm-148.6875,17.21875c-9.70928,0.001 -21.61517,0.36968 -28.21875,3.375c-4.09524,1.83 -3.35718,0.80058 -4.46875,5.3125c5.26531,0.47327 4.65876,1.46738 8.8125,4.875c7.98572,6.59434 17.875,11.55588 17.875,25.3125c0,9.93885 -4.86075,16.49276 -13.34375,17.25c-2.86667,45.97112 -0.102,17.91548 8.46875,39.8125c2.57415,6.5628 3.5625,11.85357 3.5625,20.625c5.23606,0.12615 5.84966,1.40625 16,1.40625l0,-54.625l-5.34375,0c3.21769,-14.82938 10.69694,-21.97344 11.75,-24.75c1.57959,-4.19641 -0.8398,-6.10386 4.25,-8.3125l0,-2.90625c-2.10612,-0.915 -4.18389,2.9494 -1.84375,-8.09375c0.0292,-0.15785 0.0977,-0.56099 0.15625,-0.71875c0.0292,-0.12614 0.15826,-0.49879 0.1875,-0.625l0.1875,-15.03125l-3.71875,-0.5c-5.49932,-1.38827 -0.38894,-2.375 -5.625,-2.375c-2.47177,0 -5.45107,-0.0317 -8.6875,-0.0312l0,-0.00005zm-47.3125,1.5c-1.31633,6.02641 -1.39749,7.52961 -5.84375,10.96875c-3.71497,2.87123 -5.69129,4.15942 -9.40625,7.09375c-8.89253,7.06761 -10.00033,9.44052 -12.75,22.1875c11.11566,13.81972 3.7789,11.21377 22.5,8.46875c14.33334,-2.08242 13.1349,-0.49833 23.34375,2.59375c2.72041,0.82036 5.91658,0.46875 8.8125,0.46875c6.69864,-10.8223 15.37607,-17.41518 -2.90625,-32.8125c-2.10613,-1.76691 -3.47764,-3.54196 -5.4375,-5.6875c-4.38776,-4.76434 -7.50999,-5.29861 -7.65625,-13.28125c-8.07348,0.18933 -6.88844,0.968 -8,4.3125c-0.14625,-0.31553 -0.41025,-1.06431 -0.46875,-0.875l-2.1875,-3.4375zm-28,40.25l-8.03125,0l3.71875,4.625l4.3125,-4.625zm238.6875,-37.375l2.65625,10.0625c-8.89251,6.43661 -12.48979,12.47085 -16,5.71875c7.72244,-0.69415 12.7002,-7.51466 13.34375,-15.78125zm-205.375,1.4375c0,10.8854 -3.00306,11.55257 -6.25,19.125c-4.15375,9.62334 -1.75,11.28082 -1.75,21.125c-3.68571,0.31552 -2.88661,0.14351 -5.34375,1.46875c-1.6381,-3.72311 -2.65625,-8.79003 -2.65625,-14.40625c0,-6.5628 4.7903,-10.43222 8.125,-14.25c7.78096,-8.92919 2.41203,-2.64237 6.15625,-10.625c0.9068,-1.95621 0.8412,-1.36474 1.71875,-2.4375zm4,5.75l1.34375,0c0,8.83452 8.09817,15.81855 0.84375,28.25c-2.01837,3.50226 -3.02449,4.43389 -7.5,4.8125c7.04966,-11.35869 5.3125,-15.20413 5.3125,-33.0625zm85.375,2.875l0,17.25l2.65625,0l0,-17.25l-2.65625,0zm-80.0625,1.4375c7.48844,5.39537 9.375,10.73991 9.375,21.59375c-4.3585,3.12365 -3.11513,4.17242 -9.375,5.75c3.65647,-5.9002 6.6875,-4.97223 6.6875,-14.40625c0,-3.72314 -5.13716,-6.75332 -6.6875,-12.9375zm-75.96875,5.75l0,14.375c4.2415,-3.37605 2.65625,-6.58169 2.65625,-14.375l-2.65625,0zm14.65625,0c-4.24149,3.37605 -2.6875,6.58169 -2.6875,14.375l2.6875,0l0,-14.375zm33.34375,1.4375c-7.5177,12.08436 -3.86688,15.36822 2.65625,25.875c-4.82653,1.10431 -6.61769,0.91756 -12,-10.0625c0.8483,-3.94398 1.06939,-6.50016 3,-9.75l2.8125,-4.09375c1.84286,-1.95621 0.75233,-1.17996 3.53125,-1.96875zm113.46875,14.28125c5.22793,0.0619 10.35082,3.10423 10.5625,13.0625c-3.5102,-1.89311 1.05854,-1.46875 -4.03125,-1.46875c-6.49388,0 -18.03631,1.48294 -21.3125,0c1.34558,-2.74502 2.01161,-5.88512 4.46875,-8.09375c1.74687,-1.55097 5.46964,-3.23718 9.28125,-3.46875c0.34818,-0.0211 0.68272,-0.0355 1.03125,-0.0312l0,-0.00005zm-157.46875,1.53125c-4.70953,3.4076 -2.90654,2.875 -10.6875,2.875c2.36939,4.82744 0.10951,2.68917 4,5.78125c3.30544,-2.39794 5.51743,-3.95502 6.6875,-8.65625zm179.03125,1.4375c0.73358,-0.003 1.51539,0.0312 2.3125,0.0312c2.1061,4.29105 3.883,7.8122 4,14.375c-1.05303,-1.35673 -0.45964,0.6327 -2.15625,-3.4375c-2.63266,-6.24728 -0.0179,-7.87317 -8.5,-8.0625c0.39489,-2.5557 2.14301,-2.89738 4.34375,-2.90625l0,0.00005zm-175.0625,0.0312c1.34558,3.94399 2.59409,5.01042 5.34375,7.1875c2.89592,-2.11397 4.61063,-2.75228 6.6875,-5.78125c-5.9381,1.51449 -6.61968,1.37032 -12.03125,-1.40625zm-23.96875,1.4063c1.02381,12.55764 0.92857,-5.2124 4,7.1875c4.38776,-3.47071 1.48236,-1.53972 3.96875,-7.1875l-7.96875,0zm192,2.875c3.53947,1.83002 1.42019,1.31129 6.65625,1.4375l0,5.75c-3.21769,-0.78879 -5.33609,-1.48673 -7.96875,-2.875c1.1408,-1.73536 0.69822,-1.72524 1.3125,-4.3125zm-113.625,8.4375c-5.63625,-0.01 -11.22679,1.31317 -14.375,5.9375c4.09524,-1.00966 14.81773,-3.32154 19.46875,-2.375c1.14082,0.25242 7.88371,2.21544 8.46875,2.5625c1.81361,1.07276 1.74217,0.19191 3,3c1.98911,4.48038 1.36068,1.64721 -1.59375,2.59375l0,11.5c3.53946,1.54603 2.48074,-2.95831 2.65625,5.75c-13.07552,-3.28139 -37.1079,-7.50813 -38.6875,12.9375c4.59253,-3.62847 2.90837,-8.625 9.34375,-8.625c4.70953,0 4.13878,4.15851 8,7.1875c2.5449,-10.28591 14.82611,-10.1105 17.3125,1.4375l2.875,-7.125c5.06055,0.0632 2.93129,-0.42377 6.5,1.40625c-1.02381,-4.03865 -5.55656,-9.33696 -0.4375,-26.375c1.78435,-5.93176 1.75,0.90291 1.75,-5.28125c0,-4.13329 -4.28031,-1.68418 -7.46875,-2.03125c-2.27067,-0.26621 -9.56589,-2.48711 -16.8125,-2.5zm57.625,4.53125l1.65625,57.53125l1,0c0,-10.03351 1.375,-14.05661 1.375,-24.46875l0,-33.0625l-4.03125,0zm-52.6875,4.03125c-0.43146,-0.0513 -0.70349,1.07731 -0.9375,6.0625c-0.35102,7.85643 -0.0169,5.86262 2.9375,7.15625l0,-12.25c-0.96531,0.29975 -1.56854,-0.91748 -2,-0.96875zm124.71875,4.59375c4.32927,3.15519 2.94309,2.36006 5.3125,7.1875c-2.69117,6.08953 0.24526,4.58637 -5.3125,8.625l0,-15.8125zm19.96875,2.84375c0,7.00452 -0.61794,7.46107 2.6875,11.53125l-2.6875,-11.53125zm56.03125,5.78125c2.08855,1.6384 3.02928,2.63104 3.5,4.46875c0.50522,-0.20753 0.94732,-0.42291 1.3125,-0.625c-0.35121,0.20267 -0.81904,0.42231 -1.3125,0.625c-1.94399,0.7985 -4.67696,1.54946 -7.15625,2.1875c0.65342,-3.46252 0.72709,-4.35357 3.65625,-6.65625zm-285.4375,1.25l-9.28125,3.09375c0.55579,7.06762 2.65625,5.25304 2.65625,11.46875l-1.3125,38.84375c2.92518,-3.62847 2.24873,-2.09375 2.6875,-8.625c2.77891,-41.58539 8.52584,-30.36294 24,-31.625c8.51225,-0.69415 3.41611,-1.46875 18.65625,-1.46875l0,-1.4375c-5.44082,0 -4.95599,-0.17927 -9.34375,-4.3125c-7.28368,5.23762 -5.41837,3.2953 -12,-1.4375c-0.23401,0.22087 -0.57249,0.52974 -0.71875,0.6875c-0.14627,0.12614 -0.51199,0.49849 -0.6875,0.65625c-0.26327,0.22085 -1.26798,1.0607 -1.53125,1.25c-1.22857,0.97812 -1.64571,1.18236 -2.40625,1.71875c-3.48095,-5.61623 -4.51156,-5.697 -12,-1.4375c0.58503,-1.45139 1.19349,-5.00861 1.28125,-7.375zm200.0625,0.1875l2.6875,0c1.17801,5.49424 1.01396,12.41689 0.65625,20.09375c-3.00644,1.83413 -5.08206,3.18389 -6.46875,4.09375c0.21006,-2.07471 0.39614,-4.20728 0.46875,-6.9375c0.23395,-8.42436 2.1297,-10.27702 2.65625,-17.25zm61.3125,7.4375c-2.34157,0.72899 -3.79151,1.15044 -4.75,1.40625c0.96812,-0.25996 2.429,-0.68366 4.75,-1.40625zm-39.4375,3.15625c0.63625,0.26016 1.62898,0.68783 2.90625,1.125c-1.28859,-0.43975 -2.26789,-0.86454 -2.90625,-1.125zm8.21875,2.53125c0.52976,0.0993 1.06196,0.17209 1.625,0.25c-0.55622,-0.0767 -1.10116,-0.15243 -1.625,-0.25zm9.03125,0.40625c-1.00633,0.10102 -1.97922,0.15508 -2.9375,0.15625c0.95056,-0.00099 1.93943,-0.0569 2.9375,-0.15625zm-172.8125,5.6875c-2.63491,-0.008 -5,0.83085 -5,3.8125c0,5.39538 0.90697,2.69356 1.375,8.59375l8.59375,-10.84375c0.14624,-0.12615 0.48473,-0.40415 0.71875,-0.625c-1.42054,-0.41412 -3.63813,-0.93103 -5.6875,-0.9375zm11,0.9375c2.77891,4.41726 4.02942,3.16683 5.375,8.59375l6.3125,-6.09375c2.01837,-2.01932 0.33992,1.0338 1.65625,-2.5l-13.34375,0zm20.03125,1.40625c1.46258,2.33484 1.88716,2.47645 3.4375,4.9375l3.21875,5.125c0.14627,-6.31037 0.90497,-4.47782 1.34375,-10.0625l-8,0zm98.09375,3.53125c-0.12379,0.0736 -0.20354,0.12791 -0.3125,0.1875c0.10407,-0.0575 0.19547,-0.11786 0.3125,-0.1875zm-142.09375,0.8125c-1.22857,15.87062 -5.79184,15.54998 0,20.125l0,-7.1875l4,4.3125c0.9068,-11.95817 10.56284,-11.13781 13.3125,0l2.6875,0c0.46803,-6.12107 3.34714,-8.65625 9.34375,-8.65625c10.41361,0 9.39477,2.04802 13.34375,10.09375l-17.9375,1.03125c-17.90206,1.64069 -15.64706,-2.36276 -27.40625,6.15625c-0.35102,-4.51191 -1.34375,-5.10855 -1.34375,-10.09375c0,-11.23248 0.92857,-13.35174 4,-15.78125zm-10.6875,10.0625c-3.91973,1.54605 -1.47835,-1.74636 -3.90625,4.40625l-9.4375,31.5625c3.62721,-7.88797 5.9213,-15.89673 9.34375,-20.15625c0,10.91696 -1.3125,15.62062 -1.3125,25.875l1.3125,0c0,-4.66968 1.02198,-3.94143 1.34375,-10.0625l2.65625,-31.625zm77.25,16.15625c-3.78406,1.30458 -7.73215,2.6088 -12,3.9375c4.26785,-1.3287 8.21772,-2.63307 12,-3.9375zm-42.125,8.1875c1.41998,0.74244 2.86459,1.52814 4.28125,2.1875c1.06402,0.49523 2.05904,0.91529 2.84375,1.1875c-0.78489,-0.27345 -1.77946,-0.69036 -2.84375,-1.1875c-1.4171,-0.66194 -2.86084,-1.44248 -4.28125,-2.1875z"/>
  <path fill="#14283c" fill-rule="evenodd" id="path3049" d="m629.24064,461.15517c-76.8728,25.64599 -153.74558,51.29198 -230.61838,76.93798c-77.45327,25.83964 -150.36527,51.58043 -227.59742,77.3463l0.48849,1.28468c5.88778,-1.96426 11.75428,-3.98445 17.65272,-5.92065c7.18697,-2.39768 9.18939,-1.55513 16.83562,-4.13751c13.19168,-4.46399 22.18759,-5.95448 34.53301,-10.10458l67.74979,-19.7386c23.89984,-8.00478 45.10291,-13.5994 69.78734,-21.83452c13.13001,-4.38038 22.21523,-5.9637 34.50535,-10.09537l59.2477,-19.73456c8.30326,-2.73868 12.66916,-5.6743 22.17806,-8.8466c8.15444,-2.72046 17.35911,-5.38215 25.28619,-8.37284c7.96109,-3.06508 6.64536,-3.82199 22.1398,-8.86531c9.07723,-2.99688 13.50904,-5.92299 23.48785,-9.25209l22.02503,-8.92141c12.26952,-5.82419 28.90041,-13.85869 42.77677,-18.48807l-0.47792,-1.25685z"/>
  <text font-style="normal" font-weight="500" font-size="35.37708px" font-family="Semaphore" fill="#14283c" mask="url(#mask4166)" transform="matrix(0.90582079,-0.29731372,0.25205953,1.0212387,88.6518,-24.526912) " id="text2988" y="668.01837" x="95.70612" xml:space="preserve">Москва20.12.2014</text>
  <g font-style="normal" font-weight="500" font-size="95.02587px" font-family="Semaphore" fill="#14283c" transform="matrix(0.9058208,-0.29731372,0.25205953,1.0212387,-652.55854,-10.101526) " id="text2988-3">
   <path fill="#14283c" d="m768.47522,709.58027l21.94689,0l8.90867,36.79469l23.38528,-36.79469l22.82848,0l-13.50221,69.27423l-16.93577,0l9.88306,-51.13208l-24.03486,37.81547l-9.60466,0l-9.55827,-37.81547l-16.36459,74.42461l-16.93576,0l19.98374,-92.56676" id="path2997"/>
   <path fill="#14283c" d="m983.67553,780.89446c-4.26879,1.51571 -8.36739,2.66023 -12.29582,3.43355c-3.92852,0.77332 -7.65593,1.15998 -11.18225,1.15999c-9.31083,-0.00001 -16.75018,-2.55197 -22.31809,-7.6559c-5.56792,-5.10391 -8.35188,-11.86275 -8.35188,-20.27651c0,-5.53696 0.88158,-10.74915 2.64476,-15.63659c1.76317,-4.91828 4.36153,-9.40355 7.7951,-13.45581c4.05219,-4.7636 8.92411,-8.42915 14.61579,-10.99664c5.72255,-2.56736 11.87819,-3.85108 18.46694,-3.85115c3.58817,0.00007 7.19185,0.43313 10.81105,1.29918c3.61909,0.83526 7.3001,2.11897 11.04305,3.85115l-2.87676,14.3374c-2.96962,-2.25805 -5.95465,-3.91296 -8.95508,-4.96473c-3.00054,-1.05166 -6.21756,-1.57752 -9.65106,-1.57758c-7.14554,0.00006 -13.13105,2.75308 -17.95655,8.25908c-4.82556,5.5061 -7.23832,12.38867 -7.2383,20.64772c-0.00002,5.32048 1.48476,9.49641 4.45434,12.52782c2.96953,3.03144 7.06813,4.54715 12.29583,4.54714c3.12418,0.00001 6.43399,-0.55678 9.92946,-1.67038c3.5263,-1.1445 7.47024,-2.92314 11.83183,-5.33593l-3.06236,15.35819" id="path2999"/>
   <path fill="#14283c" d="m1015.91487,714.86818l63.8456,0l-2.6448,13.50221l-23.0141,0l-10.8574,55.77202l-17.8638,0l10.8575,-55.77202l-23.01412,0l2.69112,-13.50221" id="path3001"/>
   <path fill="#14283c" d="m1101.74557,714.86818l48.1625,0l-2.6448,13.50221l-30.2987,0l-2.5056,12.89902l28.5356,0l-2.6912,13.50221l-28.4892,0l-10.3882,46.19318l-17.8637,0l18.1833,-86.09662" id="path3003"/>
  </g>
  <path fill="#14283c" stroke="#14283c" stroke-width="8" stroke-linecap="round" stroke-linejoin="round" stroke-miterlimit="4" d="m351.68046,482.45292l-6.98214,8.60993l6.12215,10.5878l-10.10001,-4.26483l-7.79578,9.24643l0.73998,-11.24573l-10.9402,-4.87319l10.55735,-2.68542l1.03436,-12.25823l5.78481,9.58605l11.57947,-2.70281z" id="path3011"/>
 </g>
</svg>